cache/month_two/icache_dm/dump.vcd
$version Generated by VerilatedVcd $end
$timescale 1ps $end
 $scope module $rootio $end
  $var wire 1 # clk $end
  $var wire 1 $ reset $end
  $var wire 1 % CPU_READ $end
  $var wire 32 & CPU_ADDRESS [31:0] $end
  $var wire 32 ' CPU_INSTR [31:0] $end
  $var wire 1 ( CPU_BUSYWAIT $end
  $var wire 1 ) MEM_BUSYWAIT $end
  $var wire 1 * MEM_READ_REQ $end
  $var wire 32 + MEM_ADDRESS [31:0] $end
  $var wire 32 , MEM_READDATA [31:0] $end
  $var wire 1 - MEM_READDATA_VALID $end
  $var wire 1 . HIT $end
  $var wire 32 / CACHE_READDATA [31:0] $end
  $var wire 25 0 STORED_TAG [24:0] $end
  $var wire 1 1 VALID $end
  $var wire 1 2 COMPARE_EN $end
  $var wire 1 3 WRITE_ENABLE $end
  $var wire 32 4 CACHE_ADDRESS [31:0] $end
  $var wire 32 5 CACHE_WRITEDATA [31:0] $end
  $var wire 25 6 CACHE_WRITETAG [24:0] $end
  $var wire 1 7 CACHE_WRITEVALID $end
 $upscope $end
 $scope module cache_controller $end
  $var wire 32 S ADDR_WIDTH [31:0] $end
  $var wire 32 S DATA_WIDTH [31:0] $end
  $var wire 32 T BLOCK_SIZE [31:0] $end
  $var wire 32 U INDEX_WIDTH [31:0] $end
  $var wire 32 V TAG_WIDTH [31:0] $end
  $var wire 1 8 clk $end
  $var wire 1 9 reset $end
  $var wire 1 : CPU_READ $end
  $var wire 32 ; CPU_ADDRESS [31:0] $end
  $var wire 32 < CPU_INSTR [31:0] $end
  $var wire 1 = CPU_BUSYWAIT $end
  $var wire 1 > MEM_BUSYWAIT $end
  $var wire 1 ? MEM_READ_REQ $end
  $var wire 32 @ MEM_ADDRESS [31:0] $end
  $var wire 32 A MEM_READDATA [31:0] $end
  $var wire 1 B MEM_READDATA_VALID $end
  $var wire 1 C HIT $end
  $var wire 32 D CACHE_READDATA [31:0] $end
  $var wire 25 E STORED_TAG [24:0] $end
  $var wire 1 F VALID $end
  $var wire 1 G COMPARE_EN $end
  $var wire 1 H WRITE_ENABLE $end
  $var wire 32 I CACHE_ADDRESS [31:0] $end
  $var wire 32 J CACHE_WRITEDATA [31:0] $end
  $var wire 25 K CACHE_WRITETAG [24:0] $end
  $var wire 1 L CACHE_WRITEVALID $end
  $var wire 2 M state [1:0] $end
  $var wire 2 N next_state [1:0] $end
  $var wire 2 W IDLE [1:0] $end
  $var wire 2 X READ_MEM [1:0] $end
  $var wire 2 Y UPDATE_CACHE [1:0] $end
  $var wire 2 Z WAIT_READ [1:0] $end
  $var wire 32 O saved_address [31:0] $end
  $var wire 25 P tag [24:0] $end
  $var wire 5 Q index [4:0] $end
  $var wire 2 R offset [1:0] $end
 $upscope $end
$enddefinitions $end


#0
1#
1$
0%
b00000000000000000000000000000000 &
b00000000000000000000000000000000 '
0(
0)
0*
b00000000000000000000000000000000 +
b00000000000000000000000000000000 ,
0-
0.
b00000000000000000000000000000000 /
b0000000000000000000000000 0
01
02
03
b00000000000000000000000000000000 4
b00000000000000000000000000000000 5
b0000000000000000000000000 6
07
18
19
0:
b00000000000000000000000000000000 ;
b00000000000000000000000000000000 <
0=
0>
0?
b00000000000000000000000000000000 @
b00000000000000000000000000000000 A
0B
0C
b00000000000000000000000000000000 D
b0000000000000000000000000 E
0F
0G
0H
b00000000000000000000000000000000 I
b00000000000000000000000000000000 J
b0000000000000000000000000 K
0L
b00 M
b00 N
b00000000000000000000000000000000 O
b0000000000000000000000000 P
b00000 Q
b00 R
b00000000000000000000000000100000 S
b00000000000000000000000000000100 T
b00000000000000000000000000000101 U
b00000000000000000000000000011001 V
b00 W
b01 X
b10 Y
b11 Z
#5000
0#
08
#10000
1#
18
#15000
0#
08
#20000
1#
0$
1%
b00000000000000000010101010001000 &
1(
12
b00000000000000000010101010001000 4
18
09
1:
b00000000000000000010101010001000 ;
1=
1G
b00000000000000000010101010001000 I
b01 N
b0000000000000000001010101 P
b00010 Q
#25000
0#
08
#30000
1#
1*
b00000000000000000010101010001000 +
b00010010001101000101011001111000 ,
1-
02
b00000000000000000000000000000000 4
18
1?
b00000000000000000010101010001000 @
b00010010001101000101011001111000 A
1B
0G
b00000000000000000000000000000000 I
b01 M
b10 N
#35000
0#
08
#40000
1#
0*
b00000000000000000000000000000000 +
13
b00000000000000000010101010001000 4
b00010010001101000101011001111000 5
b0000000000000000001010101 6
17
18
0?
b00000000000000000000000000000000 @
1H
b00000000000000000010101010001000 I
b00010010001101000101011001111000 J
b0000000000000000001010101 K
1L
b10 M
b11 N
b00000000000000000010101010001000 O
#45000
0#
08
#50000
1#
b00010010001101000101011001111000 '
1.
b00010010001101000101011001111000 /
11
03
b00000000000000000000000000000000 5
b0000000000000000000000000 6
07
18
b00010010001101000101011001111000 <
1C
b00010010001101000101011001111000 D
1F
0H
b00000000000000000000000000000000 J
b0000000000000000000000000 K
0L
b11 M
b00 N
#55000
0#
08
#60000
1#
b00000000000000000011001100001100 &
b00000000000000000000000000000000 '
b10101010101010100101010101010101 ,
0.
01
12
b00000000000000000011001100001100 4
18
b00000000000000000011001100001100 ;
b00000000000000000000000000000000 <
b10101010101010100101010101010101 A
0C
0F
1G
b00000000000000000011001100001100 I
b00 M
b01 N
b0000000000000000001100110 P
b00011 Q
#65000
0#
08
#70000
1#
b00000000000000000011101110001100 &
1*
b00000000000000000011101110001100 +
b10111011101110110110011001100110 ,
02
b00000000000000000000000000000000 4
18
b00000000000000000011101110001100 ;
1?
b00000000000000000011101110001100 @
b10111011101110110110011001100110 A
0G
b00000000000000000000000000000000 I
b01 M
b10 N
b0000000000000000001110111 P
#75000
0#
08
#80000
1#
0*
b00000000000000000000000000000000 +
1.
b10111011101110110110011001100110 /
11
13
b00000000000000000011101110001100 4
b10111011101110110110011001100110 5
b0000000000000000001110111 6
17
18
0?
b00000000000000000000000000000000 @
1C
b10111011101110110110011001100110 D
1F
1H
b00000000000000000011101110001100 I
b10111011101110110110011001100110 J
b0000000000000000001110111 K
1L
b10 M
b11 N
b00000000000000000011101110001100 O
#85000
0#
08
#90000
1#
b00000000000000000000100000010000 &
b10111011101110110110011001100110 '
b10101010101010100001000100010001 ,
0.
01
03
b00000000000000000000000000000000 5
b0000000000000000000000000 6
07
18
b00000000000000000000100000010000 ;
b10111011101110110110011001100110 <
b10101010101010100001000100010001 A
0C
0F
0H
b00000000000000000000000000000000 J
b0000000000000000000000000 K
0L
b11 M
b00 N
b0000000000000000000010000 P
b00100 Q
#95000
0#
08
#100000
1#
b00000000000000000000000000000000 '
12
b00000000000000000000100000010000 4
18
b00000000000000000000000000000000 <
1G
b00000000000000000000100000010000 I
b00 M
b01 N
#105000
0#
08
#110000
1#
1*
b00000000000000000000100000010000 +
1.
b10101010101010100001000100010001 /
11
02
b00000000000000000000000000000000 4
18
1?
b00000000000000000000100000010000 @
1C
b10101010101010100001000100010001 D
1F
0G
b00000000000000000000000000000000 I
b01 M
b10 N
#115000
0#
08
#120000
1#
b00000000000000000001000000010000 &
0*
b00000000000000000000000000000000 +
b10111011101110110010001000100010 ,
0.
13
b00000000000000000000100000010000 4
b10111011101110110010001000100010 5
b0000000000000000000100000 6
17
18
b00000000000000000001000000010000 ;
0?
b00000000000000000000000000000000 @
b10111011101110110010001000100010 A
0C
1H
b00000000000000000000100000010000 I
b10111011101110110010001000100010 J
b0000000000000000000100000 K
1L
b10 M
b11 N
b00000000000000000000100000010000 O
b0000000000000000000100000 P
#125000
0#
08
#130000
1#
b10101010101010100001000100010001 '
03
b00000000000000000000000000000000 5
b0000000000000000000000000 6
07
18
b10101010101010100001000100010001 <
0H
b00000000000000000000000000000000 J
b0000000000000000000000000 K
0L
b11 M
b00 N
#135000
0#
08
#140000
1#
b00000000000000000001100110011100 &
b00000000000000000000000000000000 '
01
12
b00000000000000000001100110011100 4
18
b00000000000000000001100110011100 ;
b00000000000000000000000000000000 <
0F
1G
b00000000000000000001100110011100 I
b00 M
b01 N
b0000000000000000000110011 P
b00111 Q
#145000
0#
08
#150000
1#
1$
0%
0(
02
b00000000000000000000000000000000 4
18
19
0:
0=
0G
b00000000000000000000000000000000 I
b00 N
b00000000000000000000000000000000 O
#155000
0#
08
#160000
1#
0$
12
18
09
1G
#165000
0#
08
#170000
1#
1%
b00000000000000000010000001000000 &
1(
b00010000000000000001000000000000 ,
b00000000000000000010000001000000 4
18
1:
b00000000000000000010000001000000 ;
1=
b00010000000000000001000000000000 A
b00000000000000000010000001000000 I
b01 N
b0000000000000000001000000 P
b10000 Q
#175000
0#
08
#180000
1#
1*
b00000000000000000010000001000000 +
02
b00000000000000000000000000000000 4
18
1?
b00000000000000000010000001000000 @
0G
b00000000000000000000000000000000 I
b01 M
b10 N
#185000
0#
08
#190000
1#
b00000000000000000010000011000100 &
0*
b00000000000000000000000000000000 +
b00100000000000000010000000000000 ,
13
b00000000000000000010000001000000 4
b00100000000000000010000000000000 5
b0000000000000000001000001 6
17
18
b00000000000000000010000011000100 ;
0?
b00000000000000000000000000000000 @
b00100000000000000010000000000000 A
1H
b00000000000000000010000001000000 I
b00100000000000000010000000000000 J
b0000000000000000001000001 K
1L
b10 M
b11 N
b00000000000000000010000001000000 O
b0000000000000000001000001 P
b10001 Q
#195000
0#
08
#200000
1#
b10101010101010100001000100010001 '
03
b00000000000000000000000000000000 5
b0000000000000000000000000 6
07
18
b10101010101010100001000100010001 <
0H
b00000000000000000000000000000000 J
b0000000000000000000000000 K
0L
b11 M
b00 N
#205000
0#
08
#210000
1#
b00100000000000000010000000000000 '
0(
1.
b00100000000000000010000000000000 /
11
12
b00000000000000000010000011000100 4
18
b00100000000000000010000000000000 <
0=
1C
b00100000000000000010000000000000 D
1F
1G
b00000000000000000010000011000100 I
b00 M
