cache/month_two/icache_dm/dump.vcd
$version Generated by VerilatedVcd $end
$timescale 1ps $end
 $scope module $rootio $end
  $var wire 1 # clk $end
  $var wire 1 $ reset $end
  $var wire 1 % CPU_READ $end
  $var wire 32 & CPU_ADDRESS [31:0] $end
  $var wire 32 ' CPU_INSTR [31:0] $end
  $var wire 1 ( CPU_BUSYWAIT $end
  $var wire 1 ) MEM_BUSYWAIT $end
  $var wire 1 * MEM_READ_REQ $end
  $var wire 32 + MEM_ADDRESS [31:0] $end
  $var wire 32 , MEM_READDATA [31:0] $end
  $var wire 1 - MEM_READDATA_VALID $end
  $var wire 1 . HIT $end
  $var wire 32 / CACHE_READDATA [31:0] $end
  $var wire 24 0 STORED_TAG [23:0] $end
  $var wire 1 1 VALID $end
  $var wire 1 2 COMPARE_EN $end
  $var wire 1 3 WRITE_ENABLE $end
  $var wire 32 4 CACHE_ADDRESS [31:0] $end
  $var wire 32 5 CACHE_WRITEDATA [31:0] $end
  $var wire 24 6 CACHE_WRITETAG [23:0] $end
  $var wire 1 7 CACHE_WRITEVALID $end
 $upscope $end
 $scope module cache_controller $end
  $var wire 32 S ADDR_WIDTH [31:0] $end
  $var wire 32 S DATA_WIDTH [31:0] $end
  $var wire 32 T BLOCK_SIZE [31:0] $end
  $var wire 32 U INDEX_WIDTH [31:0] $end
  $var wire 32 V TAG_WIDTH [31:0] $end
  $var wire 1 8 clk $end
  $var wire 1 9 reset $end
  $var wire 1 : CPU_READ $end
  $var wire 32 ; CPU_ADDRESS [31:0] $end
  $var wire 32 < CPU_INSTR [31:0] $end
  $var wire 1 = CPU_BUSYWAIT $end
  $var wire 1 > MEM_BUSYWAIT $end
  $var wire 1 ? MEM_READ_REQ $end
  $var wire 32 @ MEM_ADDRESS [31:0] $end
  $var wire 32 A MEM_READDATA [31:0] $end
  $var wire 1 B MEM_READDATA_VALID $end
  $var wire 1 C HIT $end
  $var wire 32 D CACHE_READDATA [31:0] $end
  $var wire 24 E STORED_TAG [23:0] $end
  $var wire 1 F VALID $end
  $var wire 1 G COMPARE_EN $end
  $var wire 1 H WRITE_ENABLE $end
  $var wire 32 I CACHE_ADDRESS [31:0] $end
  $var wire 32 J CACHE_WRITEDATA [31:0] $end
  $var wire 24 K CACHE_WRITETAG [23:0] $end
  $var wire 1 L CACHE_WRITEVALID $end
  $var wire 2 M state [1:0] $end
  $var wire 2 N next_state [1:0] $end
  $var wire 2 W IDLE [1:0] $end
  $var wire 2 X READ_MEM [1:0] $end
  $var wire 2 Y UPDATE_CACHE [1:0] $end
  $var wire 2 Z WAIT_READ [1:0] $end
  $var wire 32 O saved_address [31:0] $end
  $var wire 24 P tag [23:0] $end
  $var wire 5 Q index [4:0] $end
  $var wire 3 R offset [2:0] $end
 $upscope $end
$enddefinitions $end


#0
1#
1$
0%
b00000000000000000000000000000000 &
b00000000000000000000000000000000 '
0(
0)
0*
b00000000000000000000000000000000 +
b00000000000000000000000000000000 ,
0-
0.
b00000000000000000000000000000000 /
b000000000000000000000000 0
01
02
03
b00000000000000000000000000000000 4
b00000000000000000000000000000000 5
b000000000000000000000000 6
07
18
19
0:
b00000000000000000000000000000000 ;
b00000000000000000000000000000000 <
0=
0>
0?
b00000000000000000000000000000000 @
b00000000000000000000000000000000 A
0B
0C
b00000000000000000000000000000000 D
b000000000000000000000000 E
0F
0G
0H
b00000000000000000000000000000000 I
b00000000000000000000000000000000 J
b000000000000000000000000 K
0L
b00 M
b00 N
b00000000000000000000000000000000 O
b000000000000000000000000 P
b00000 Q
b000 R
b00000000000000000000000000100000 S
b00000000000000000000000000001000 T
b00000000000000000000000000000101 U
b00000000000000000000000000011000 V
b00 W
b01 X
b10 Y
b11 Z
#5000
0#
08
#10000
1#
18
#15000
0#
08
#20000
1#
0$
1%
b00000010100010100110011011011100 &
1(
12
b00000010100010100110011011011100 4
18
09
1:
b00000010100010100110011011011100 ;
1=
1G
b00000010100010100110011011011100 I
b01 N
b000000101000101001100110 P
b11011 Q
b100 R
#25000
0#
08
#30000
1#
1*
b00000010100010100110011011011000 +
b01000011001010111010110001000100 ,
1-
02
b00000000000000000000000000000000 4
18
1?
b00000010100010100110011011011000 @
b01000011001010111010110001000100 A
1B
0G
b00000000000000000000000000000000 I
b01 M
b10 N
#35000
0#
08
#40000
1#
0*
b00000000000000000000000000000000 +
13
b00000010100010100110011011011100 4
b01000011001010111010110001000100 5
b000000101000101001100110 6
17
18
0?
b00000000000000000000000000000000 @
1H
b00000010100010100110011011011100 I
b01000011001010111010110001000100 J
b000000101000101001100110 K
1L
b10 M
b11 N
b00000010100010100110011011011100 O
#45000
0#
08
#50000
1#
b01000011001010111010110001000100 '
1.
b01000011001010111010110001000100 /
11
03
b00000000000000000000000000000000 5
b000000000000000000000000 6
07
18
b01000011001010111010110001000100 <
1C
b01000011001010111010110001000100 D
1F
0H
b00000000000000000000000000000000 J
b000000000000000000000000 K
0L
b11 M
b00 N
#55000
0#
08
#60000
1#
0%
b00000000000000000000000000000000 '
0(
12
b00000000000000000000000000000000 4
18
0:
b00000000000000000000000000000000 <
0=
1G
b00000000000000000000000000000000 I
b00 M
#65000
0#
08
#70000
1#
1%
b01000011001010111010110001000100 '
b00000010100010100110011011011100 4
18
1:
b01000011001010111010110001000100 <
b00000010100010100110011011011100 I
#75000
0#
08
#80000
1#
0%
b00000000000000000000000000000000 '
b00000000000000000000000000000000 4
18
0:
b00000000000000000000000000000000 <
b00000000000000000000000000000000 I
#85000
0#
08
#90000
1#
1%
b01000011001010111010110001000100 '
b00000010100010100110011011011100 4
18
1:
b01000011001010111010110001000100 <
b00000010100010100110011011011100 I
#95000
0#
08
#100000
1#
0%
b00000000000000000000000000000000 '
b00000000000000000000000000000000 4
18
0:
b00000000000000000000000000000000 <
b00000000000000000000000000000000 I
#105000
0#
08
#110000
1#
1%
b01000011001010111010110001000100 '
b00000010100010100110011011011100 4
18
1:
b01000011001010111010110001000100 <
b00000010100010100110011011011100 I
#115000
0#
08
#120000
1#
0%
b00000000000000000000000000000000 '
b00000000000000000000000000000000 4
18
0:
b00000000000000000000000000000000 <
b00000000000000000000000000000000 I
#125000
0#
08
#130000
1#
1%
b00000001000110101111000001001000 &
1(
0.
01
b00000001000110101111000001001000 4
18
1:
b00000001000110101111000001001000 ;
1=
0C
0F
b00000001000110101111000001001000 I
b01 N
b000000010001101011110000 P
b01001 Q
b000 R
#135000
0#
08
#140000
1#
1*
b00000001000110101111000001001000 +
b00111000001000100000100000001100 ,
02
b00000000000000000000000000000000 4
18
1?
b00000001000110101111000001001000 @
b00111000001000100000100000001100 A
0G
b00000000000000000000000000000000 I
b01 M
b10 N
#145000
0#
08
#150000
1#
0*
b00000000000000000000000000000000 +
13
b00000001000110101111000001001000 4
b00111000001000100000100000001100 5
b000000010001101011110000 6
17
18
0?
b00000000000000000000000000000000 @
1H
b00000001000110101111000001001000 I
b00111000001000100000100000001100 J
b000000010001101011110000 K
1L
b10 M
b11 N
b00000001000110101111000001001000 O
#155000
0#
08
#160000
1#
b00111000001000100000100000001100 '
1.
b00111000001000100000100000001100 /
11
03
b00000000000000000000000000000000 5
b000000000000000000000000 6
07
18
b00111000001000100000100000001100 <
1C
b00111000001000100000100000001100 D
1F
0H
b00000000000000000000000000000000 J
b000000000000000000000000 K
0L
b11 M
b00 N
#165000
0#
08
#170000
1#
0%
b00000000000000000000000000000000 '
0(
12
b00000000000000000000000000000000 4
18
0:
b00000000000000000000000000000000 <
0=
1G
b00000000000000000000000000000000 I
b00 M
#175000
0#
08
#180000
1#
1%
b00111000001000100000100000001100 '
b00000001000110101111000001001000 4
18
1:
b00111000001000100000100000001100 <
b00000001000110101111000001001000 I
#185000
0#
08
#190000
1#
0%
b00000000000000000000000000000000 '
b00000000000000000000000000000000 4
18
0:
b00000000000000000000000000000000 <
b00000000000000000000000000000000 I
#195000
0#
08
#200000
1#
1%
b00000010100010100110011011011100 &
b01000011001010111010110001000100 '
b01000011001010111010110001000100 /
b00000010100010100110011011011100 4
18
1:
b00000010100010100110011011011100 ;
b01000011001010111010110001000100 <
b01000011001010111010110001000100 D
b00000010100010100110011011011100 I
b000000101000101001100110 P
b11011 Q
b100 R
#205000
0#
08
#210000
1#
0%
b00000000000000000000000000000000 '
b00000000000000000000000000000000 4
18
0:
b00000000000000000000000000000000 <
b00000000000000000000000000000000 I
#215000
0#
08
#220000
1#
1%
b00000001000110101111000001001000 &
b00111000001000100000100000001100 '
b00111000001000100000100000001100 /
b00000001000110101111000001001000 4
18
1:
b00000001000110101111000001001000 ;
b00111000001000100000100000001100 <
b00111000001000100000100000001100 D
b00000001000110101111000001001000 I
b000000010001101011110000 P
b01001 Q
b000 R
#225000
0#
08
#230000
1#
0%
b00000000000000000000000000000000 '
b00000000000000000000000000000000 4
18
0:
b00000000000000000000000000000000 <
b00000000000000000000000000000000 I
#235000
0#
08
#240000
1#
1%
b00000010100010100110011011011100 &
b01000011001010111010110001000100 '
b01000011001010111010110001000100 /
b00000010100010100110011011011100 4
18
1:
b00000010100010100110011011011100 ;
b01000011001010111010110001000100 <
b01000011001010111010110001000100 D
b00000010100010100110011011011100 I
b000000101000101001100110 P
b11011 Q
b100 R
#245000
0#
08
#250000
1#
0%
b00000000000000000000000000000000 '
b00000000000000000000000000000000 4
18
0:
b00000000000000000000000000000000 <
b00000000000000000000000000000000 I
#255000
0#
08
#260000
1#
1%
b01000011001010111010110001000100 '
b00000010100010100110011011011100 4
18
1:
b01000011001010111010110001000100 <
b00000010100010100110011011011100 I
#265000
0#
08
#270000
1#
0%
b00000000000000000000000000000000 '
b00000000000000000000000000000000 4
18
0:
b00000000000000000000000000000000 <
b00000000000000000000000000000000 I
#275000
0#
08
#280000
1#
1%
b00000001000110101111000001001000 &
b00111000001000100000100000001100 '
b00111000001000100000100000001100 /
b00000001000110101111000001001000 4
18
1:
b00000001000110101111000001001000 ;
b00111000001000100000100000001100 <
b00111000001000100000100000001100 D
b00000001000110101111000001001000 I
b000000010001101011110000 P
b01001 Q
b000 R
#285000
0#
08
#290000
1#
0%
b00000000000000000000000000000000 '
b00000000000000000000000000000000 4
18
0:
b00000000000000000000000000000000 <
b00000000000000000000000000000000 I
#295000
0#
08
#300000
1#
1%
b00000011111001110101001001100100 &
1(
0.
01
b00000011111001110101001001100100 4
18
1:
b00000011111001110101001001100100 ;
1=
0C
0F
b00000011111001110101001001100100 I
b01 N
b000000111110011101010010 P
b01100 Q
b100 R
#305000
0#
08
#310000
1#
1*
b00000011111001110101001001100000 +
b01101101000001111110100010111101 ,
02
b00000000000000000000000000000000 4
18
1?
b00000011111001110101001001100000 @
b01101101000001111110100010111101 A
0G
b00000000000000000000000000000000 I
b01 M
b10 N
#315000
0#
08
#320000
1#
0*
b00000000000000000000000000000000 +
13
b00000011111001110101001001100100 4
b01101101000001111110100010111101 5
b000000111110011101010010 6
17
18
0?
b00000000000000000000000000000000 @
1H
b00000011111001110101001001100100 I
b01101101000001111110100010111101 J
b000000111110011101010010 K
1L
b10 M
b11 N
b00000011111001110101001001100100 O
#325000
0#
08
#330000
1#
b01101101000001111110100010111101 '
1.
b01101101000001111110100010111101 /
11
03
b00000000000000000000000000000000 5
b000000000000000000000000 6
07
18
b01101101000001111110100010111101 <
1C
b01101101000001111110100010111101 D
1F
0H
b00000000000000000000000000000000 J
b000000000000000000000000 K
0L
b11 M
b00 N
#335000
0#
08
#340000
1#
0%
b00000000000000000000000000000000 '
0(
12
b00000000000000000000000000000000 4
18
0:
b00000000000000000000000000000000 <
0=
1G
b00000000000000000000000000000000 I
b00 M
#345000
0#
08
#350000
1#
1%
b01101101000001111110100010111101 '
b00000011111001110101001001100100 4
18
1:
b01101101000001111110100010111101 <
b00000011111001110101001001100100 I
#355000
0#
08
#360000
1#
0%
b00000000000000000000000000000000 '
b00000000000000000000000000000000 4
18
0:
b00000000000000000000000000000000 <
b00000000000000000000000000000000 I
#365000
0#
08
#370000
1#
1%
b00000001000110101111000001001000 &
b00111000001000100000100000001100 '
b00111000001000100000100000001100 /
b00000001000110101111000001001000 4
18
1:
b00000001000110101111000001001000 ;
b00111000001000100000100000001100 <
b00111000001000100000100000001100 D
b00000001000110101111000001001000 I
b000000010001101011110000 P
b01001 Q
b000 R
#375000
0#
08
#380000
1#
0%
b00000000000000000000000000000000 '
b00000000000000000000000000000000 4
18
0:
b00000000000000000000000000000000 <
b00000000000000000000000000000000 I
#385000
0#
08
#390000
1#
1%
b00000010100010100110011011011100 &
b01000011001010111010110001000100 '
b01000011001010111010110001000100 /
b00000010100010100110011011011100 4
18
1:
b00000010100010100110011011011100 ;
b01000011001010111010110001000100 <
b01000011001010111010110001000100 D
b00000010100010100110011011011100 I
b000000101000101001100110 P
b11011 Q
b100 R
#395000
0#
08
#400000
1#
0%
b00000000000000000000000000000000 '
b00000000000000000000000000000000 4
18
0:
b00000000000000000000000000000000 <
b00000000000000000000000000000000 I
#405000
0#
08
#410000
1#
1%
b01000011001010111010110001000100 '
b00000010100010100110011011011100 4
18
1:
b01000011001010111010110001000100 <
b00000010100010100110011011011100 I
#415000
0#
08
#420000
1#
0%
b00000000000000000000000000000000 '
b00000000000000000000000000000000 4
18
0:
b00000000000000000000000000000000 <
b00000000000000000000000000000000 I
#425000
0#
08
#430000
1#
1%
b00000011111001110101001001100100 &
b01101101000001111110100010111101 '
b01101101000001111110100010111101 /
b00000011111001110101001001100100 4
18
1:
b00000011111001110101001001100100 ;
b01101101000001111110100010111101 <
b01101101000001111110100010111101 D
b00000011111001110101001001100100 I
b000000111110011101010010 P
b01100 Q
#435000
0#
08
#440000
1#
0%
b00000000000000000000000000000000 '
b00000000000000000000000000000000 4
18
0:
b00000000000000000000000000000000 <
b00000000000000000000000000000000 I
#445000
0#
08
#450000
1#
1%
b00000000010011101111101001110100 &
1(
0.
01
b00000000010011101111101001110100 4
18
1:
b00000000010011101111101001110100 ;
1=
0C
0F
b00000000010011101111101001110100 I
b01 N
b000000000100111011111010 P
b01110 Q
#455000
0#
08
#460000
1#
1*
b00000000010011101111101001110000 +
b01011100101011100011100010000010 ,
02
b00000000000000000000000000000000 4
18
1?
b00000000010011101111101001110000 @
b01011100101011100011100010000010 A
0G
b00000000000000000000000000000000 I
b01 M
b10 N
#465000
0#
08
#470000
1#
0*
b00000000000000000000000000000000 +
13
b00000000010011101111101001110100 4
b01011100101011100011100010000010 5
b000000000100111011111010 6
17
18
0?
b00000000000000000000000000000000 @
1H
b00000000010011101111101001110100 I
b01011100101011100011100010000010 J
b000000000100111011111010 K
1L
b10 M
b11 N
b00000000010011101111101001110100 O
#475000
0#
08
#480000
1#
b01011100101011100011100010000010 '
1.
b01011100101011100011100010000010 /
11
03
b00000000000000000000000000000000 5
b000000000000000000000000 6
07
18
b01011100101011100011100010000010 <
1C
b01011100101011100011100010000010 D
1F
0H
b00000000000000000000000000000000 J
b000000000000000000000000 K
0L
b11 M
b00 N
#485000
0#
08
#490000
1#
0%
b00000000000000000000000000000000 '
0(
12
b00000000000000000000000000000000 4
18
0:
b00000000000000000000000000000000 <
0=
1G
b00000000000000000000000000000000 I
b00 M
#495000
0#
08
#500000
1#
1%
b01011100101011100011100010000010 '
b00000000010011101111101001110100 4
18
1:
b01011100101011100011100010000010 <
b00000000010011101111101001110100 I
#505000
0#
08
#510000
1#
0%
b00000000000000000000000000000000 '
b00000000000000000000000000000000 4
18
0:
b00000000000000000000000000000000 <
b00000000000000000000000000000000 I
#515000
0#
08
#520000
1#
1%
b00000010100010100110011011011100 &
b01000011001010111010110001000100 '
b01000011001010111010110001000100 /
b00000010100010100110011011011100 4
18
1:
b00000010100010100110011011011100 ;
b01000011001010111010110001000100 <
b01000011001010111010110001000100 D
b00000010100010100110011011011100 I
b000000101000101001100110 P
b11011 Q
#525000
0#
08
#530000
1#
0%
b00000000000000000000000000000000 '
b00000000000000000000000000000000 4
18
0:
b00000000000000000000000000000000 <
b00000000000000000000000000000000 I
#535000
0#
08
#540000
1#
1%
b00000011111001110101001001100100 &
b01101101000001111110100010111101 '
b01101101000001111110100010111101 /
b00000011111001110101001001100100 4
18
1:
b00000011111001110101001001100100 ;
b01101101000001111110100010111101 <
b01101101000001111110100010111101 D
b00000011111001110101001001100100 I
b000000111110011101010010 P
b01100 Q
#545000
0#
08
#550000
1#
0%
b00000000000000000000000000000000 '
b00000000000000000000000000000000 4
18
0:
b00000000000000000000000000000000 <
b00000000000000000000000000000000 I
#555000
0#
08
#560000
1#
1%
b00000000011001001010100001001100 &
1(
0.
01
b00000000011001001010100001001100 4
18
1:
b00000000011001001010100001001100 ;
1=
0C
0F
b00000000011001001010100001001100 I
b01 N
b000000000110010010101000 P
b01001 Q
#565000
0#
08
#570000
1#
1*
b00000000011001001010100001001000 +
b01100000111110100111100100100001 ,
02
b00000000000000000000000000000000 4
18
1?
b00000000011001001010100001001000 @
b01100000111110100111100100100001 A
0G
b00000000000000000000000000000000 I
b01 M
b10 N
#575000
0#
08
#580000
1#
0*
b00000000000000000000000000000000 +
13
b00000000011001001010100001001100 4
b01100000111110100111100100100001 5
b000000000110010010101000 6
17
18
0?
b00000000000000000000000000000000 @
1H
b00000000011001001010100001001100 I
b01100000111110100111100100100001 J
b000000000110010010101000 K
1L
b10 M
b11 N
b00000000011001001010100001001100 O
#585000
0#
08
#590000
1#
b01100000111110100111100100100001 '
1.
b01100000111110100111100100100001 /
11
03
b00000000000000000000000000000000 5
b000000000000000000000000 6
07
18
b01100000111110100111100100100001 <
1C
b01100000111110100111100100100001 D
1F
0H
b00000000000000000000000000000000 J
b000000000000000000000000 K
0L
b11 M
b00 N
#595000
0#
08
#600000
1#
0%
b00000000000000000000000000000000 '
0(
12
b00000000000000000000000000000000 4
18
0:
b00000000000000000000000000000000 <
0=
1G
b00000000000000000000000000000000 I
b00 M
#605000
0#
08
#610000
1#
1%
b00000011111001110101001001100100 &
b01101101000001111110100010111101 '
b01101101000001111110100010111101 /
b00000011111001110101001001100100 4
18
1:
b00000011111001110101001001100100 ;
b01101101000001111110100010111101 <
b01101101000001111110100010111101 D
b00000011111001110101001001100100 I
b000000111110011101010010 P
b01100 Q
#615000
0#
08
#620000
1#
0%
b00000000000000000000000000000000 '
b00000000000000000000000000000000 4
18
0:
b00000000000000000000000000000000 <
b00000000000000000000000000000000 I
#625000
0#
08
#630000
1#
1%
b01101101000001111110100010111101 '
b00000011111001110101001001100100 4
18
1:
b01101101000001111110100010111101 <
b00000011111001110101001001100100 I
#635000
0#
08
#640000
1#
0%
b00000000000000000000000000000000 '
b00000000000000000000000000000000 4
18
0:
b00000000000000000000000000000000 <
b00000000000000000000000000000000 I
#645000
0#
08
#650000
1#
1%
b01101101000001111110100010111101 '
b00000011111001110101001001100100 4
18
1:
b01101101000001111110100010111101 <
b00000011111001110101001001100100 I
#655000
0#
08
#660000
1#
0%
b00000000000000000000000000000000 '
b00000000000000000000000000000000 4
18
0:
b00000000000000000000000000000000 <
b00000000000000000000000000000000 I
#665000
0#
08
#670000
1#
1%
b00000011110101001110111010000100 &
1(
0.
01
b00000011110101001110111010000100 4
18
1:
b00000011110101001110111010000100 ;
1=
0C
0F
b00000011110101001110111010000100 I
b01 N
b000000111101010011101110 P
b10000 Q
#675000
0#
08
#680000
1#
1*
b00000011110101001110111010000000 +
b10100011011011101111001011101001 ,
02
b00000000000000000000000000000000 4
18
1?
b00000011110101001110111010000000 @
b10100011011011101111001011101001 A
0G
b00000000000000000000000000000000 I
b01 M
b10 N
#685000
0#
08
#690000
1#
0*
b00000000000000000000000000000000 +
13
b00000011110101001110111010000100 4
b10100011011011101111001011101001 5
b000000111101010011101110 6
17
18
0?
b00000000000000000000000000000000 @
1H
b00000011110101001110111010000100 I
b10100011011011101111001011101001 J
b000000111101010011101110 K
1L
b10 M
b11 N
b00000011110101001110111010000100 O
#695000
0#
08
#700000
1#
b10100011011011101111001011101001 '
1.
b10100011011011101111001011101001 /
11
03
b00000000000000000000000000000000 5
b000000000000000000000000 6
07
18
b10100011011011101111001011101001 <
1C
b10100011011011101111001011101001 D
1F
0H
b00000000000000000000000000000000 J
b000000000000000000000000 K
0L
b11 M
b00 N
#705000
0#
08
#710000
1#
0%
b00000000000000000000000000000000 '
0(
12
b00000000000000000000000000000000 4
18
0:
b00000000000000000000000000000000 <
0=
1G
b00000000000000000000000000000000 I
b00 M
#715000
0#
08
#720000
1#
1%
b00000000011001001010100001001100 &
b01100000111110100111100100100001 '
b01100000111110100111100100100001 /
b00000000011001001010100001001100 4
18
1:
b00000000011001001010100001001100 ;
b01100000111110100111100100100001 <
b01100000111110100111100100100001 D
b00000000011001001010100001001100 I
b000000000110010010101000 P
b01001 Q
#725000
0#
08
#730000
1#
0%
b00000000000000000000000000000000 '
b00000000000000000000000000000000 4
18
0:
b00000000000000000000000000000000 <
b00000000000000000000000000000000 I
#735000
0#
08
#740000
1#
1%
b00000001000110101111000001001000 &
b00111000001000100000100000001100 '
b00111000001000100000100000001100 /
b00000001000110101111000001001000 4
18
1:
b00000001000110101111000001001000 ;
b00111000001000100000100000001100 <
b00111000001000100000100000001100 D
b00000001000110101111000001001000 I
b000000010001101011110000 P
b000 R
#745000
0#
08
#750000
1#
0%
b00000000000000000000000000000000 '
b00000000000000000000000000000000 4
18
0:
b00000000000000000000000000000000 <
b00000000000000000000000000000000 I
#755000
0#
08
#760000
1#
1%
b00000000011001001010100001001100 &
b01100000111110100111100100100001 '
b01100000111110100111100100100001 /
b00000000011001001010100001001100 4
18
1:
b00000000011001001010100001001100 ;
b01100000111110100111100100100001 <
b01100000111110100111100100100001 D
b00000000011001001010100001001100 I
b000000000110010010101000 P
b100 R
#765000
0#
08
#770000
1#
0%
b00000000000000000000000000000000 '
b00000000000000000000000000000000 4
18
0:
b00000000000000000000000000000000 <
b00000000000000000000000000000000 I
#775000
0#
08
#780000
1#
1%
b00000011111001110101001001100100 &
b01101101000001111110100010111101 '
b01101101000001111110100010111101 /
b00000011111001110101001001100100 4
18
1:
b00000011111001110101001001100100 ;
b01101101000001111110100010111101 <
b01101101000001111110100010111101 D
b00000011111001110101001001100100 I
b000000111110011101010010 P
b01100 Q
#785000
0#
08
#790000
1#
0%
b00000000000000000000000000000000 '
b00000000000000000000000000000000 4
18
0:
b00000000000000000000000000000000 <
b00000000000000000000000000000000 I
#795000
0#
08
#800000
1#
1%
b00000010100010100110011011011100 &
b01000011001010111010110001000100 '
b01000011001010111010110001000100 /
b00000010100010100110011011011100 4
18
1:
b00000010100010100110011011011100 ;
b01000011001010111010110001000100 <
b01000011001010111010110001000100 D
b00000010100010100110011011011100 I
b000000101000101001100110 P
b11011 Q
#805000
0#
08
#810000
1#
0%
b00000000000000000000000000000000 '
b00000000000000000000000000000000 4
18
0:
b00000000000000000000000000000000 <
b00000000000000000000000000000000 I
#815000
0#
08
#820000
1#
1%
b00000011111001110101001001100100 &
b01101101000001111110100010111101 '
b01101101000001111110100010111101 /
b00000011111001110101001001100100 4
18
1:
b00000011111001110101001001100100 ;
b01101101000001111110100010111101 <
b01101101000001111110100010111101 D
b00000011111001110101001001100100 I
b000000111110011101010010 P
b01100 Q
#825000
0#
08
#830000
1#
0%
b00000000000000000000000000000000 '
b00000000000000000000000000000000 4
18
0:
b00000000000000000000000000000000 <
b00000000000000000000000000000000 I
#835000
0#
08
#840000
1#
1%
b00000010100010100110011011011100 &
b01000011001010111010110001000100 '
b01000011001010111010110001000100 /
b00000010100010100110011011011100 4
18
1:
b00000010100010100110011011011100 ;
b01000011001010111010110001000100 <
b01000011001010111010110001000100 D
b00000010100010100110011011011100 I
b000000101000101001100110 P
b11011 Q
#845000
0#
08
#850000
1#
0%
b00000000000000000000000000000000 '
b00000000000000000000000000000000 4
18
0:
b00000000000000000000000000000000 <
b00000000000000000000000000000000 I
#855000
0#
08
#860000
1#
1%
b00000000011001001010100001001100 &
b01100000111110100111100100100001 '
b01100000111110100111100100100001 /
b00000000011001001010100001001100 4
18
1:
b00000000011001001010100001001100 ;
b01100000111110100111100100100001 <
b01100000111110100111100100100001 D
b00000000011001001010100001001100 I
b000000000110010010101000 P
b01001 Q
#865000
0#
08
#870000
1#
0%
b00000000000000000000000000000000 '
b00000000000000000000000000000000 4
18
0:
b00000000000000000000000000000000 <
b00000000000000000000000000000000 I
#875000
0#
08
#880000
1#
1%
b00000001000100100101101101010100 &
1(
0.
01
b00000001000100100101101101010100 4
18
1:
b00000001000100100101101101010100 ;
1=
0C
0F
b00000001000100100101101101010100 I
b01 N
b000000010001001001011011 P
b01010 Q
#885000
0#
08
#890000
1#
1*
b00000001000100100101101101010000 +
b00011001010101010100001001011111 ,
02
b00000000000000000000000000000000 4
18
1?
b00000001000100100101101101010000 @
b00011001010101010100001001011111 A
0G
b00000000000000000000000000000000 I
b01 M
b10 N
#895000
0#
08
#900000
1#
0*
b00000000000000000000000000000000 +
13
b00000001000100100101101101010100 4
b00011001010101010100001001011111 5
b000000010001001001011011 6
17
18
0?
b00000000000000000000000000000000 @
1H
b00000001000100100101101101010100 I
b00011001010101010100001001011111 J
b000000010001001001011011 K
1L
b10 M
b11 N
b00000001000100100101101101010100 O
#905000
0#
08
#910000
1#
b00011001010101010100001001011111 '
1.
b00011001010101010100001001011111 /
11
03
b00000000000000000000000000000000 5
b000000000000000000000000 6
07
18
b00011001010101010100001001011111 <
1C
b00011001010101010100001001011111 D
1F
0H
b00000000000000000000000000000000 J
b000000000000000000000000 K
0L
b11 M
b00 N
#915000
0#
08
#920000
1#
0%
b00000000000000000000000000000000 '
0(
12
b00000000000000000000000000000000 4
18
0:
b00000000000000000000000000000000 <
0=
1G
b00000000000000000000000000000000 I
b00 M
#925000
0#
08
#930000
1#
1%
b00011001010101010100001001011111 '
b00000001000100100101101101010100 4
18
1:
b00011001010101010100001001011111 <
b00000001000100100101101101010100 I
#935000
0#
08
#940000
1#
0%
b00000000000000000000000000000000 '
b00000000000000000000000000000000 4
18
0:
b00000000000000000000000000000000 <
b00000000000000000000000000000000 I
#945000
0#
08
#950000
1#
1%
b00000001000110101111000001001000 &
b00111000001000100000100000001100 '
b00111000001000100000100000001100 /
b00000001000110101111000001001000 4
18
1:
b00000001000110101111000001001000 ;
b00111000001000100000100000001100 <
b00111000001000100000100000001100 D
b00000001000110101111000001001000 I
b000000010001101011110000 P
b01001 Q
b000 R
#955000
0#
08
#960000
1#
0%
b00000000000000000000000000000000 '
b00000000000000000000000000000000 4
18
0:
b00000000000000000000000000000000 <
b00000000000000000000000000000000 I
#965000
0#
08
#970000
1#
1%
b00000011110101001110111010000100 &
b10100011011011101111001011101001 '
b10100011011011101111001011101001 /
b00000011110101001110111010000100 4
18
1:
b00000011110101001110111010000100 ;
b10100011011011101111001011101001 <
b10100011011011101111001011101001 D
b00000011110101001110111010000100 I
b000000111101010011101110 P
b10000 Q
b100 R
#975000
0#
08
#980000
1#
0%
b00000000000000000000000000000000 '
b00000000000000000000000000000000 4
18
0:
b00000000000000000000000000000000 <
b00000000000000000000000000000000 I
#985000
0#
08
#990000
1#
1%
b00000010100010111010101101000100 &
1(
0.
01
b00000010100010111010101101000100 4
18
1:
b00000010100010111010101101000100 ;
1=
0C
0F
b00000010100010111010101101000100 I
b01 N
b000000101000101110101011 P
b01000 Q
#995000
0#
08
#1000000
1#
1*
b00000010100010111010101101000000 +
b00111000000111011111001111111001 ,
02
b00000000000000000000000000000000 4
18
1?
b00000010100010111010101101000000 @
b00111000000111011111001111111001 A
0G
b00000000000000000000000000000000 I
b01 M
b10 N
#1005000
0#
08
#1010000
1#
0*
b00000000000000000000000000000000 +
13
b00000010100010111010101101000100 4
b00111000000111011111001111111001 5
b000000101000101110101011 6
17
18
0?
b00000000000000000000000000000000 @
1H
b00000010100010111010101101000100 I
b00111000000111011111001111111001 J
b000000101000101110101011 K
1L
b10 M
b11 N
b00000010100010111010101101000100 O
#1015000
0#
08
#1020000
1#
b00111000000111011111001111111001 '
1.
b00111000000111011111001111111001 /
11
03
b00000000000000000000000000000000 5
b000000000000000000000000 6
07
18
b00111000000111011111001111111001 <
1C
b00111000000111011111001111111001 D
1F
0H
b00000000000000000000000000000000 J
b000000000000000000000000 K
0L
b11 M
b00 N
#1025000
0#
08
#1030000
1#
0%
b00000000000000000000000000000000 '
0(
12
b00000000000000000000000000000000 4
18
0:
b00000000000000000000000000000000 <
0=
1G
b00000000000000000000000000000000 I
b00 M
#1035000
0#
08
#1040000
1#
1%
b00000000011001001010100001001100 &
b01100000111110100111100100100001 '
b01100000111110100111100100100001 /
b00000000011001001010100001001100 4
18
1:
b00000000011001001010100001001100 ;
b01100000111110100111100100100001 <
b01100000111110100111100100100001 D
b00000000011001001010100001001100 I
b000000000110010010101000 P
b01001 Q
#1045000
0#
08
#1050000
1#
0%
b00000000000000000000000000000000 '
b00000000000000000000000000000000 4
18
0:
b00000000000000000000000000000000 <
b00000000000000000000000000000000 I
#1055000
0#
08
#1060000
1#
1%
b00000011111001110101001001100100 &
b01101101000001111110100010111101 '
b01101101000001111110100010111101 /
b00000011111001110101001001100100 4
18
1:
b00000011111001110101001001100100 ;
b01101101000001111110100010111101 <
b01101101000001111110100010111101 D
b00000011111001110101001001100100 I
b000000111110011101010010 P
b01100 Q
#1065000
0#
08
#1070000
1#
0%
b00000000000000000000000000000000 '
b00000000000000000000000000000000 4
18
0:
b00000000000000000000000000000000 <
b00000000000000000000000000000000 I
#1075000
0#
08
#1080000
1#
1%
b01101101000001111110100010111101 '
b00000011111001110101001001100100 4
18
1:
b01101101000001111110100010111101 <
b00000011111001110101001001100100 I
#1085000
0#
08
#1090000
1#
0%
b00000000000000000000000000000000 '
b00000000000000000000000000000000 4
18
0:
b00000000000000000000000000000000 <
b00000000000000000000000000000000 I
#1095000
0#
08
